-8 976
992
24 -8 -8 -8 -8 -8 -8 -8 -8 832
-8 -16 -24 -32 -40 -48 -56 712
-8 8 -8 -8 -8 -8 -8 -8 -8 -8 832
-8 48 -32 -40 -48 -56 -64 -72 -80 472
8 -16 24 -40 48 -56 64 -72 600
-8 16 -24 40 -48 56 -64 72 -80 512
992
-992
