-40 944
-40 -24 912
40 -24 912
72 -24 880
640 -80 256
992
-8 976
-992
-40 128 -88 712
-88 48 -320 512
-8 -40 -136 -56 -16 -40 -184 -120 -72 248
-96 8 -40 -16 8 -96 -72 -104 -88 -104 280
-40 -8 -256 -144 -16 488
-64 -160 32 -256 -72 368
-72 176 -16 -160 -192 -112 -160 48
992
-40 -40 896
